2020-07-10 17:51:42.187583," 2",
2020-07-10 17:53:14.509014," 66",
2020-07-10 17:54:57.558371," 23",
2020-07-10 17:55:41.997344," a",
2020-07-10 18:11:24.117381," 96",
2020-07-10 18:12:03.390259," 22",
2020-07-10 18:12:49.685147," Putt-Putt Goes To The Moon"," 67"
2020-07-10 19:04:19.101357," Doom 9"," 456"
2020-07-10 19:05:07.340883," Doom 23"," 9842"
2020-07-10 19:05:53.524604," Quake 7"," 666"
2020-07-10 19:07:19.316593," Duke Nukem 9"," 69"
2020-07-10 19:10:59.179293," Hockey Hell"," 2"
2020-07-10 19:14:29.661301," King's Quest 96"," 9842"
2020-07-10 19:21:20.461444," Super Mario Interdimensional"," 3.14"
2020-07-10 20:01:50.221073," The Conundrum Of Monkey Island"," 9875"
2020-07-10 20:01:59.884050," Doom 88"," 23939"